…
### Factor management

##### Drop Oceania

``` r
gapminder %>%
  filter(continent == "Oceania")        # we have 24 observations in Oceania for 2 countries
```

    ## # A tibble: 24 x 6
    ##      country continent  year lifeExp      pop gdpPercap
    ##       <fctr>    <fctr> <int>   <dbl>    <int>     <dbl>
    ##  1 Australia   Oceania  1952   69.12  8691212  10039.60
    ##  2 Australia   Oceania  1957   70.33  9712569  10949.65
    ##  3 Australia   Oceania  1962   70.93 10794968  12217.23
    ##  4 Australia   Oceania  1967   71.10 11872264  14526.12
    ##  5 Australia   Oceania  1972   71.93 13177000  16788.63
    ##  6 Australia   Oceania  1977   73.49 14074100  18334.20
    ##  7 Australia   Oceania  1982   74.74 15184200  19477.01
    ##  8 Australia   Oceania  1987   76.32 16257249  21888.89
    ##  9 Australia   Oceania  1992   77.56 17481977  23424.77
    ## 10 Australia   Oceania  1997   78.83 18565243  26997.94
    ## # ... with 14 more rows
…
