…
```r
gapminder %>%
  filter(continent=="Asia") %>%
  arrange(desc(gdpPercap))
```

```
## # A tibble: 396 x 6
##             country continent  year lifeExp     pop gdpPercap
##              <fctr>    <fctr> <int>   <dbl>   <int>     <dbl>
##  1           Kuwait      Asia  1957  58.033  212846 113523.13
##  2           Kuwait      Asia  1972  67.712  841934 109347.87
##  3           Kuwait      Asia  1952  55.565  160000 108382.35
##  4           Kuwait      Asia  1962  60.470  358266  95458.11
##  5           Kuwait      Asia  1967  64.624  575003  80894.88
##  6           Kuwait      Asia  1977  69.343 1140357  59265.48
##  7           Kuwait      Asia  2007  77.588 2505559  47306.99
##  8        Singapore      Asia  2007  79.972 4553009  47143.18
##  9           Kuwait      Asia  1997  76.156 1765345  40300.62
## 10 Hong Kong, China      Asia  2007  82.208 6980412  39724.98
## # ... with 386 more rows
```
…
```r
data2 <- gapminder %>%
  group_by(country) %>%
  mutate(lifeExpincrease = lifeExp - lag(lifeExp)) %>%
  filter (!is.na(lifeExpincrease)) %>%
  group_by(continent,year) %>%
  summarize(lifeExpincrease = mean(lifeExpincrease)) %>%
  arrange(year)
data2
```

```
## # A tibble: 55 x 3
## # Groups:   continent [5]
##    continent  year lifeExpincrease
##       <fctr> <int>           <dbl>
##  1    Africa  1957        2.130846
##  2  Americas  1957        2.680440
##  3      Asia  1957        3.004150
##  4    Europe  1957        2.294567
##  5   Oceania  1957        1.040000
##  6    Africa  1962        2.053096
##  7  Americas  1962        2.438480
##  8      Asia  1962        2.244679
##  9    Europe  1962        1.836167
## 10   Oceania  1962        0.790000
## # ... with 45 more rows
```
…
